{ "signal": [
    { "name": "clk", "wave": "p....." },
    [ "Wishbone Master",
        { "name": "adr[31:0]", "wave": "x3.x.4", "data": ["adr", "adr + 4"] },
        { "name": "dat_i[31:0]", "wave": "x.=x..", "data": "instr" },
        { "name": "dat_o[31:0]", "wave": "x....." },
        { "name": "cyc", "wave": "01.0.1" },
        { "name": "stb", "wave": "01.0.1" },
        { "name": "we", "wave": "0....." },
        { "name": "sel[3:0]", "wave": "x=.x.=", "data": ["0xF", "0xF"] },
        { "name": "ack", "wave": "0.10..", "node": "" }

    ],
    ["controller",
        { "name": "state", "wave": "23.453", "data": ["s_start", "s_fetchinstr", "s_decodeinstr", "s_auipc","s_start"] },
        ["in",
            { "name": "branch", "wave": "x....."}
        ],
        ["out",
            {"name": "c_adr_pc_not_alu", "wave": "x1.x.1"},
            {"name": "c_alu_a_not_pc", "wave": "x...0x"},
            {"name": "c_alu_b", "wave": "x...=x", "data": ["alub_sel_imm_u"]},
            {"name": "c_alu_pc_not_branch", "wave": "x....."},
            {"name": "c_ir_load", "wave": "0.10.."},
            {"name": "c_pc_not_alu", "wave": "x...1x"},
            {"name": "c_regsortmux", "wave": "x...=x", "data": ["rsm_sel_alu"]},
            {"name": "ld_reg", "wave": "0...10"},
            {"name": "pc_load", "wave": "0...10"}
        ]
    ]
    ],
    "edge": [
    ],
    "head":{
        "tick": -1,
        "every" :1
    },
    "config": { "hscale": 3}
}